08RS data
…
mtext2 <- function(...) mtext(..., cex = 2 / 3)

A tuning of the hist() function:

hist2 <- function(x, ...) hist(x, function(x) min(x):max(x), ...)

4 Saras’ CSV file

saras <- readr::read_csv(paste0(root, "/GitHub/choisy/08RS/complete data including ",
                                "all withdrawals_updated26_3_21.csv"))

select(saras, waste, visitM, ddifENB, ddifEN, FUP, FUP1)

# A tibble: 1,408 × 6
   waste      visitM ddifENB ddifEN FUP   FUP1 
   <chr>       <dbl>   <dbl>  <dbl> <chr> <chr>
 1 Not Wasted      2      NA    547 18m   18m  
 2 Not Wasted     NA     184     NA 6m    <NA> 
 3 Not Wasted      1      NA      3 ENROL ENROL
 4 Not Wasted      2      NA    547 18m   18m  
 5 Not Wasted      1     182    182 6m    6m   
 6 Not Wasted     NA      11     NA ENROL <NA> 
 7 Not Wasted     NA     567     NA 18m   <NA> 
 8 Not Wasted     NA     204     NA 6m    <NA> 
 9 Not Wasted     NA      14     NA ENROL <NA> 
10 Not Wasted     NA      16     NA prem  <NA> 
# ℹ 1,398 more rows
…
Of note, here

MD stands for manual dexterity,

AC stands for aiming and catching and

BAL stands for balance.

ABC |> 
  na.exclude()

# A tibble: 221 × 10
   ParNo  DateTested MD1ISS MD2ISS MD3ISS AC1ISS AC2ISS BAL1ISS BAL2ISS BAL3ISS
   <chr>  <date>      <dbl>  <dbl>  <dbl>  <dbl>  <dbl>   <dbl>   <dbl>   <dbl>
 1 03-001 2013-06-21      4      8      0      0      0       0       0       0
 2 03-001 2014-12-17      3     10      6     11      6       6       7       1
 3 03-001 2015-06-30      5     12      1      9     10       3       1       1
 4 03-003 2015-01-15     11     14     13     12     14      14      13      12
 5 03-004 2015-01-20     14     16      1      9      6       7       7       6
 6 03-007 2015-02-02      9     10      5      8     12      10      11       6
 7 03-010 2014-03-20      6     11      1      7     11       6      13       6
 8 03-010 2015-03-20     12     12      6     11     12       8      13       4
 9 03-016 2015-04-07      8     14     12     12     12       9      13       5
10 03-020 2014-06-24     11     13     10     12     11       9      13      12
# ℹ 211 more rows
…
children |>
  filter(group == "HFMD") |> 
  select(Final, PCR, HFMD) |> 
  mutate(across(Final, ~ ! is.na(.x)),
         across(PCR, ~ str_detect(.x, "EV-A71")),
         across(HFMD, ~ ifelse(is.na(.x) | .x == "Not Applicable", "grade 1", .x))) |> 
  na.exclude()

# A tibble: 242 × 3
   Final PCR   HFMD       
   <lgl> <lgl> <chr>      
 1 TRUE  FALSE grade 4    
 2 TRUE  TRUE  grade 3    
 3 FALSE TRUE  grade 2b(2)
 4 TRUE  FALSE grade 3    
 5 FALSE TRUE  grade 3    
 6 FALSE FALSE grade 2b(1)
 7 FALSE FALSE grade 2b(1)
 8 FALSE TRUE  grade 3    
 9 FALSE TRUE  grade 3    
10 TRUE  TRUE  grade 3    
# ℹ 232 more rows
…
